Plotly Examples
…
data("rest_inspec")

restaurant_df = 
  rest_inspec %>%
  filter(
    cuisine_description == "American",
    grade == c("A", "B", "C"),
    score %in% 10:100
  ) %>%
  mutate(inspection_date = as_date(inspection_date)) %>% 
  select(inspection_date,cuisine_description,grade,boro,score,dba)

restaurant_df

## # A tibble: 9,835 x 6
##    inspection_date cuisine_description grade boro     score dba                 
##    <date>          <chr>               <chr> <chr>    <int> <chr>               
##  1 2017-03-27      American            A     MANHATT…    12 AROME CAFE 32       
##  2 2017-07-21      American            A     MANHATT…    13 SUNSWEET FRESH MARK…
##  3 2017-10-13      American            A     MANHATT…    10 DALI MARKET         
##  4 2015-03-24      American            B     MANHATT…    19 AU BON PAIN         
##  5 2016-04-11      American            B     MANHATT…    20 THE AINSWORTH       
##  6 2016-05-03      American            A     MANHATT…    13 ROCK AND REILLYS    
##  7 2016-02-01      American            A     MANHATT…    11 HOLLAND HOUSE       
##  8 2015-10-20      American            A     MANHATT…    10 STOUT               
##  9 2015-06-29      American            A     MANHATT…    12 MARKET PLACE (CENTE…
## 10 2015-08-31      American            A     MANHATT…    11 B&W DELI GROCERY    
## # … with 9,825 more rows
…
